{
    "$schema": "https://docs.renovatebot.com/renovate-schema.json",
    "enabled": true,
    "extends": [
        "config:base",
        ":automergeAll",
        ":gitSignOff",
        ":dependencyDashboard"
    ],
    "platformAutomerge": true,
    "gitLabIgnoreApprovals": true,
    "packageRules": [
        {
            "matchManagers": [
                "regex"
            ],
            "semanticCommitType": "fix"
        },
        {
            "registryUrls": [
                "https://gitlab.com"
            ],
            "matchDatasources": [
                "gitlab-tags"
            ]
        },
        {
            "matchDatasources": [
                "docker"
            ],
            "groupName": "image-tag updates"
        }
    ]
}